{
  "batchcomplete": "",
  "continue": { "psoffset": 10, "continue": "-||" },
  "query": {
    "prefixsearch": [
      { "ns": 0, "title": "Star Wars", "pageid": 26678 },
      { "ns": 0, "title": "Star Wars (film)", "pageid": 52549 },
      {
        "ns": 0,
        "title": "Star Wars: The Rise of Skywalker",
        "pageid": 43910733
      }
    ]
  }
}
